<?xml version="1.0" standalone="no"?>
<!DOCTYPE svg PUBLIC "-//W3C//DTD SVG 1.1//EN" "http://www.w3.org/Graphics/SVG/1.1/DTD/svg11.dtd">
<svg xmlns="http://www.w3.org/2000/svg">
<metadata>Copyright (C) 2015 by original authors @ fontello.com</metadata>
<defs>
<font id="fontelloyoutube" horiz-adv-x="1000" >
<font-face font-family="fontelloyoutube" font-weight="400" font-stretch="normal" units-per-em="1000" ascent="850" descent="-150" />
<missing-glyph horiz-adv-x="1000" />
<glyph glyph-name="youtube-squared" unicode="&#xe800;" d="m513 123v88q0 27-16 27-10 0-19-9v-125q9-8 19-8 16 0 16 27z m103 68h36v19q0 28-18 28t-18-28v-19z m-319 148v-39h-45v-236h-41v236h-44v39h130z m112-70v-205h-37v23q-22-25-43-25-18 0-23 15-4 9-4 30v162h37v-151q0-13 1-14 0-8 8-8 11 0 24 17v156h37z m141-62v-81q0-29-4-41-7-23-30-23-19 0-38 22v-20h-37v275h37v-89q18 22 38 22 23 0 30-24 4-11 4-41z m140-72v-5q0-16-1-24-2-12-9-22-15-22-44-22-29 0-46 21-11 15-11 48v72q0 33 11 48 16 21 44 21t44-21q12-16 12-48v-43h-74v-36q0-28 18-28 14 0 17 14 0 1 1 4t0 9v12h38z m-252 460v-87q0-29-18-29t-18 29v87q0 29 18 29t18-29z m297-398q0 99-10 145-6 25-24 41t-43 19q-75 9-229 9-154 0-230-9-24-2-42-19t-24-41q-11-48-11-145 0-98 11-145 5-24 24-41t42-19q76-9 230-9t229 9q24 2 43 19t23 41q11 47 11 145z m-421 363l50 166h-41l-29-109-29 109h-44l13-39t13-38q20-58 26-89v-112h41v112z m161-45v73q0 32-11 48-16 21-44 21-28 0-43-21-12-16-12-48v-73q0-32 12-48 15-22 43-22 28 0 44 22 11 15 11 48z m101-67h38v207h-38v-158q-12-18-23-18-8 0-9 9 0 1 0 15v152h-38v-164q0-21 4-31 6-15 23-15 21 0 43 25v-22z m281 170v-536q0-66-47-113t-114-48h-535q-67 0-114 48t-47 113v536q0 66 47 113t114 48h535q67 0 114-48t47-113z" horiz-adv-x="857.1" />
<glyph glyph-name="youtube" unicode="&#xe801;" d="m807 739v-313h-64v35q-37-39-74-39-45 0-45 56v261h64v-240q0-21 17-21t38 24v237h64z m-237-73v-162q0-42-25-64t-68-22q-41 0-66 24t-26 63v162q0 39 28 60t67 20q38 0 64-22t26-59z m-65-167v171q0 10-9 17t-19 6-18-6-8-17v-171q0-26 26-26 28 0 28 26z m-190 351h73l-55-165q-4-12-10-27t-10-28-8-28v-176h-72v168q-2 12-29 85l-57 171h73l46-169h5z m611-739q0-49-6-145-4-50-38-80t-85-31q-99-5-297-5-199 0-297 5-50 2-84 31t-39 80q-6 96-6 145t6 145q4 50 39 80t84 31q98 5 297 5t297-5q50-2 85-31t38-80q6-96 6-145z m-71-91v19h-53q0-2 1-13t0-15-3-12-7-10-14-3q-10 0-15 6t-6 12-1 17v48h98v64q0 35-19 55t-54 20q-34 0-56-20t-23-55v-113q0-36 20-58t55-21q77 0 77 79z m-191-19v140q0 63-50 63-25 0-46-23v110h-52v-343h52v20q22-23 49-23 47 0 47 56z m-250-53h51v253h-51v-192q-17-19-31-19-13 0-13 17v194h-52v-213q0-44 36-44 30 0 60 32v-28z m-156 293h61v50h-179v-50h60v-293h58v293z m544-105v-28h-45v28q0 27 23 27 22 0 22-27z m-191 3v-133q0-21-18-21-14 0-25 11v158q10 10 22 10 21 0 21-25z" horiz-adv-x="1000" />
</font>
</defs>
</svg>